{
    "author": ["_Middel_"],
    "min_bot_version": "3.5.0",
    "description": "Manage your Minecraft server from within your Discord server, and check server status and online players without opening the game.",
    "hidden": false,
    "install_msg": "Thank you for installing this module!",
    "required_cogs": {},
    "requirements": ["aio-mc-rcon", "mcstatus"],
    "short": "Manage a Minecraft server from within Discord.",
    "end_user_data_statement": "This cog stores Minecraft usernames associated to Discord user IDs.",
    "tags": ["minecraft", "whitelist", "automation", "game"]
}