{
    "name": "Wikipedia",
    "author": [
        "_middel_"
    ],
    "short": "Look up articles on Wikipedia.",
    "description": "Allows for looking up terms on Wikipedia, and having the results displayed in chat.",
    "install_msg": "Thanks for installing Wikipedia!",
    "requirements": [
        "python-dateutil"
    ],
    "tags": [
        "information",
        "lookup",
        "reference",
        "search",
        "utility",
        "wiki"
    ],
    "min_bot_version": "3.5.0",
    "min_python_version": [
        3,
        11,
        0
    ],
    "end_user_data_statement": "This cog does not persistently store data or metadata about users."
}